[gd_scene format=2]

[node name="Button" type="Button"]
margin_right = 100.0
margin_bottom = 100.0

[node name="Label" type="Label" parent="."]
anchor_right = 1.0
anchor_bottom = 1.0
text = "x1"
align = 1
valign = 1
__meta__ = {
"_edit_use_anchors_": false
}
